{
	"success": true,
	"lastLogin": 1493698817807,
	"lastSuccessLogin": 1493698817807,
	"user": {
		"userId": "sysadmin",
		"userName": "MANAGER",
		"userType": "1",
		"lockStatus": "N",
		"lockLimit": -1,
		"lockCount": 0,
		"enabled": 1
	},
	"authorities": "[ROLE_groupv2UserManagement, ROLE_merchantGroupManagement, ROLE_fileReimport, ROLE_taskManagementPreset.edit, ROLE_holidayConfig.check, ROLE_programInquire, ROLE_reportA3, ROLE_timePolicyManagement, ROLE_reportA2, ROLE_reportA1, ROLE_poDetailNcccPaymentRequest.execute, ROLE_merchantManagement, ROLE_taskManagementPreset.check, ROLE_groupv2Management, ROLE_merchantGroupManagement.print, ROLE_cardinfoManagement, ROLE_merchantManagement.delete, ROLE_groupv2UserManagement.edit, ROLE_groupv2UserManagement.recover, ROLE_autoPayment.execute, ROLE_cardinfoManagement.edit, ROLE_timePolicyManagement.edit, ROLE_merchantManagement.check, ROLE_timePolicyManagement.recover, ROLE_groupv2UserAuthConf, ROLE_timePolicyManagement.check, ROLE_poDetailNcccQueryOrder, ROLE_merchantGroupManagement.delete, ROLE_groupv2Management.recover, ROLE_autoNCCCfileInput, ROLE_taskManagementPreset, ROLE_poDetailNcccRefund, ROLE_timePolicyManagement.delete, ROLE_fileReimport.execute, ROLE_poDetailNcccRefund.execute, ROLE_autoPayment, ROLE_merchantManagement.print, ROLE_reportC1, ROLE_reportC5, ROLE_timePolicyManagement.append, ROLE_taskManagement, ROLE_reportC4, ROLE_autoNCCCfileInput.execute, ROLE_reportC3, ROLE_reportC2, ROLE_groupv2Management.delete, ROLE_poDetailNcccHistoryData.execute, ROLE_poDetailNcccPaymentRequestDate.edit, ROLE_merchantGroupManagement.append, ROLE_fileIoInquire, ROLE_merchantManagement.edit, ROLE_ioConfigInquire.edit, ROLE_groupv2UserManagement.unlock, ROLE_ioConfigInquire, ROLE_autoBalancefileOutput, ROLE_reportF4, ROLE_groupv2UserManagement.append, ROLE_reportF3, ROLE_reportF2, ROLE_reportF1, ROLE_poDetailNcccPaymentRequest, ROLE_reportF5, ROLE_groupv2UserAuthConf.edit, ROLE_merchantManagement.recover, ROLE_merchantGroupManagement.recover, ROLE_groupv2UserAuthConf.check, ROLE_merchantGroupManagement.check, ROLE_holidayConfig.edit, ROLE_merchantGroupManagement.edit, ROLE_cardinfoManagement.append, ROLE_groupv2Management.append, ROLE_groupv2UserManagement.delete, ROLE_holidayConfig, ROLE_autoBalancefileOutput.execute, ROLE_timePolicyManagement.print, ROLE_poDetailNcccHistoryData, ROLE_groupv2Management.edit, ROLE_merchantManagement.append, ROLE_poDetailNcccPaymentRequestDate]",
	"loginPageUrl": "memberUserManagement"
}